…
glimpse(factor_degree)

##  Ord.factor w/ 5 levels "Lt high school"<..: 4 NA 4 NA 5 3 NA NA NA 3 ...

Create a new variable, bachelor_graduate that is Yes if the respondent has either a Bachelor or Graduate degree. As before, if the recorded value for either was NA, the value in your new variable should also be NA.

gss_tidy <- gss_tidy %>% 
  mutate(bachelor_graduate = case_when(
    factor_degree == "Bachelor" | factor_degree == "Graduate" ~ "Yes",
    factor_degree == "NA" ~ "NA"
  ))
  
gss_tidy

## # A tibble: 2,867 x 9
##    emailmin emailhr snapchat instagrm twitter sex   degree snap_insta
##    <chr>    <chr>   <chr>    <chr>    <chr>   <chr> <chr>  <chr>     
##  1 0        12      NA       NA       NA      Male  Bache… NA        
##  2 30       0       No       No       No      Male  High … No        
##  3 NA       NA      No       No       No      Male  Bache… No        
##  4 10       0       NA       NA       NA      Fema… High … NA        
##  5 NA       NA      Yes      Yes      No      Fema… Gradu… Yes       
##  6 0        2       No       Yes      No      Fema… Junio… Yes       
##  7 0        40      NA       NA       NA      Male  High … NA        
##  8 NA       NA      Yes      Yes      No      Fema… High … Yes       
##  9 0        0       NA       NA       NA      Male  High … NA        
## 10 NA       NA      No       No       No      Male  Junio… No        
## # … with 2,857 more rows, and 1 more variable: bachelor_graduate <chr>
…
