GDP of the 3 countries I've lived in · Nguissaly's Portfolio
…
Secondly, recall that GDP is the sum of Household Expenditure (Consumption C), Gross Capital Formation (business investment I), Government Expenditure (G) and Net Exports (exports - imports). Even though there is an indicator Gross Domestic Product (GDP) in my dataframe, I would like to calculate it given its components discussed above and then determine how much each component contributes to that country’s GDP.

## # A tibble: 144 x 14
##    CountryID Country Years Consumption Government_Expe… Gross_capital_f… Exports
##        <dbl> <chr>   <chr>       <dbl>            <dbl>            <dbl>   <dbl>
##  1       124 Canada  1970         266.             144.             85.0    94.0
##  2       124 Canada  1971         282.             148.             92.2    98.3
##  3       124 Canada  1972         301.             153.             97.7   107. 
##  4       124 Canada  1973         321.             160.            110.    117. 
##  5       124 Canada  1974         338.             170.            122.    112. 
##  6       124 Canada  1975         350.             181.            122.    103. 
##  7       124 Canada  1976         368.             185.            130.    111. 
##  8       124 Canada  1977         379.             194.            130.    118. 
##  9       124 Canada  1978         390.             197.            131.    130. 
## 10       124 Canada  1979         399.             199.            149.    134. 
## # … with 134 more rows, and 7 more variables: Imports <dbl>, Net_Exports <dbl>,
## #   GDP <dbl>, Prop_C <dbl>, Prop_I <dbl>, Prop_G <dbl>, Prop_NE <dbl>
…
